{
  "stats": {
    "suites": 2,
    "tests": 1,
    "passes": 1,
    "pending": 0,
    "failures": 0,
    "start": "2015-05-20T17:04:44.470Z",
    "end": "2015-05-20T17:04:45.057Z",
    "duration": 587
  },
  "failures": [],
  "passes": [
    {
      "title": "should login without error",
      "fullTitle": "User #login() should login without error",
      "duration": 580
    }
  ],
  "skipped": []
}